Data documentation with R and Quarto - 7 Data cleaning
…
exDatID |> 
  dplyr::mutate(dupID = ifelse(duplicated(id), "dup", " ")) |>
  dplyr::filter(dupID == "dup")

# A tibble: 0 × 11
# … with 11 variables: msc1 <dbl>, msc2 <dbl>, msc3 <dbl>, msc4 <dbl>,
#   age <dbl>, sex <dbl>, edu <dbl>, fLang <chr>, id <int>, dupResp <chr>,
#   dupID <chr>

However, dplyr provides a function dplyr::distinct() which can be used to keep only unique rows.

dplyr::distinct(exDatID)

# A tibble: 752 × 10
    msc1  msc2  msc3  msc4   age   sex   edu fLang     id dupResp
   <dbl> <dbl> <dbl> <dbl> <dbl> <dbl> <dbl> <chr>  <int> <chr>  
 1     2     3     2     2  9.82     0     0 german     1 " "    
 2     3     2     1     1  8.98     1     0 german     2 " "    
 3     2     2     3     3 12.8      0     0 german     3 " "    
 4     2     2     3     2 10.6      0     0 german     4 " "    
 5     3     2     2     2  9.89     1     0 german     5 " "    
 6     3     3     3     2 10.4      0     0 german     6 " "    
 7     4     4     1     2 10.9      1     0 german     7 " "    
 8     3     3     2     1  7.98     1     0 german     8 " "    
 9     3     3     2     1 10.7     NA     0 german     9 " "    
10     3     3     2     2  9.11     0     0 german    10 " "    
# … with 742 more rows
…
